{
    "2008": {
        "SC Ganguly": 119.93769470404985,
        "BB McCullum": 210.52631578947367,
        "RT Ponting": 95.91836734693877,
        "DJ Hussey": 126.69172932330828,
        "Mohammad Hafeez": 83.13253012048193,
        "R Dravid": 126.08695652173914,
        "W Jaffer": 110.9090909090909,
        "V Kohli": 111.97604790419162,
        "JH Kallis": 115.42553191489363,
        "CL White": 114.42307692307692,
        "MV Boucher": 130,
        "B Akhil": 163.33333333333334,
        "AA Noffke": 100,
        "P Kumar": 120.40816326530613,
        "Z Khan": 87.8048780487805,
        "SB Joshi": 50,
        "PA Patel": 107.34824281150159,
        "ML Hayden": 157.46268656716418,
        "MEK Hussey": 170,
        "MS Dhoni": 135.73667711598748,
        "SK Raina": 144.73684210526315,
        "JDP Oram": 146.15384615384613,
        "S Badrinath": 147.44525547445255,
        "K Goel": 100,
        "JR Hopes": 151.65562913907286,
        "KC Sangakkara": 161.83574879227055,
        "Yuvraj Singh": 160.7329842931937,
        "SM Katich": 144.44444444444443,
        "IK Pathan": 122.6890756302521,
        "T Kohli": 84.61538461538461,
        "YK Pathan": 179.44664031620553,
        "SR Watson": 155.4858934169279,
        "M Kaif": 111.49425287356323,
        "DS Lehmann": 105.26315789473684,
        "RA Jadeja": 139.25233644859813,
        "M Rawat": 92.3076923076923,
        "D Salunkhe": 137.5,
        "SK Warne": 125.42372881355932,
        "SK Trivedi": 55.55555555555556,
        "G Gambhir": 145.1282051282051,
        "V Sehwag": 189.08296943231443,
        "S Dhawan": 118.89250814332249,
        "L Ronchi": 109.09090909090908,
        "ST Jayasuriya": 167.26726726726727,
        "DJ Thornely": 98.14814814814815,
        "RV Uthappa": 123.71134020618557,
        "PR Shah": 113.88888888888889,
        "AM Nayar": 153.90070921985816,
        "SM Pollock": 132.75862068965517,
        "Harbhajan Singh": 176.47058823529412,
        "S Chanderpaul": 84.375,
        "LRPL Taylor": 183.52941176470588,
        "AC Gilchrist": 140.2439024390244,
        "Y Venugopal Rao": 140.0921658986175,
        "VVS Laxman": 127.2,
        "A Symonds": 155.04587155963304,
        "RG Sharma": 153.4798534798535,
        "SB Styris": 97.5609756097561,
        "AS Yadav": 130,
        "SB Bangar": 97.95918367346938,
        "WPUJC Vaas": 135.29411764705884,
        "RP Singh": 115.99999999999999,
        "WP Saha": 137.81512605042016,
        "LR Shukla": 137.79527559055117,
        "DPMD Jayawardene": 137.95620437956205,
        "S Sohal": 57.14285714285714,
        "B Lee": 166.66666666666669,
        "PP Chawla": 155,
        "WA Mota": 96.42857142857143,
        "Kamran Akmal": 173.6842105263158,
        "Shahid Afridi": 195.23809523809524,
        "DJ Bravo": 138.68613138686132,
        "MA Khote": 122.72727272727273,
        "A Nehra": 41.66666666666667,
        "GC Smith": 131.08108108108107,
        "Pankaj Singh": 62.5,
        "RR Sarwan": 100,
        "S Sreesanth": 100,
        "VRV Singh": 166.66666666666669,
        "SS Tiwary": 136.8421052631579,
        "DS Kulkarni": 42.857142857142854,
        "R Vinay Kumar": 128.57142857142858,
        "AB Agarkar": 120.40816326530613,
        "M Kartik": 121.42857142857142,
        "I Sharma": 109.09090909090908,
        "AM Rahane": 54.54545454545454,
        "Shoaib Malik": 116.3265306122449,
        "MK Tiwary": 125.5813953488372,
        "KD Karthik": 140.74074074074073,
        "R Bhatia": 137.03703703703704,
        "MF Maharoof": 160.75949367088606,
        "VY Mahesh": 75,
        "TM Srivastava": 88.88888888888889,
        "B Chipli": 73.33333333333333,
        "DW Steyn": 40,
        "DB Das": 114.89361702127661,
        "MK Pandey": 44.44444444444444,
        "HH Gibbs": 113.83647798742138,
        "DNT Zoysa": 144.44444444444443,
        "D Kalyankrishna": 66.66666666666666,
        "SE Marsh": 142.7937915742794,
        "SA Asnodkar": 143.15352697095435,
        "Sohail Tanvir": 129.03225806451613,
        "Salman Butt": 122.67441860465115,
        "BJ Hodge": 81.25,
        "Umar Gul": 231.57894736842107,
        "AB Dinda": 75,
        "SP Fleming": 124.40476190476191,
        "S Vidyut": 135.65217391304347,
        "JA Morkel": 149.4047619047619,
        "AB de Villiers": 100,
        "LPC Silva": 172,
        "DB Ravi Teja": 136.47058823529412,
        "Misbah-ul-Haq": 153.0864197530864,
        "YV Takawale": 116.4179104477612,
        "RR Raje": 88.88888888888889,
        "PJ Sangwan": 75,
        "Mohammad Asif": 75,
        "GD McGrath": 133.33333333333331,
        "Joginder Sharma": 177.77777777777777,
        "MS Gony": 172.72727272727272,
        "M Muralitharan": 0,
        "M Ntini": 66.66666666666666,
        "DT Patil": 100,
        "A Kumble": 121.42857142857142,
        "S Anirudha": 100,
        "MM Patel": 0,
        "CK Kapugedera": 79.16666666666666,
        "A Chopra": 83.33333333333334,
        "T Taibu": 119.23076923076923,
        "J Arunkumar": 131.57894736842107,
        "PP Ojha": 75,
        "SP Goswami": 96.51162790697676,
        "SR Tendulkar": 113.22751322751323,
        "U Kaul": 0,
        "TM Dilshan": 134.17721518987344,
        "A Mishra": 88.09523809523809,
        "AD Mascarenhas": 112.5,
        "Niraj Patel": 134.14634146341464,
        "LA Pomersbach": 167,
        "Iqbal Abdulla": 100,
        "Younis Khan": 42.857142857142854,
        "PM Sarvesh Kumar": 100,
        "DP Vijaykumar": 100,
        "Shoaib Akhtar": 37.5,
        "Abdur Razzak": 0,
        "H Das": 66.66666666666666,
        "DR Smith": 123.07692307692308,
        "SD Chitnis": 190,
        "CRD Fernando": 200,
        "VS Yeligati": 100,
        "L Balaji": 50,
        "A Mukund": 0,
        "RR Powar": 170.58823529411765
    },
    "2009": {
        "ST Jayasuriya": 120.6896551724138,
        "SR Tendulkar": 124.60063897763578,
        "S Dhawan": 89.13043478260869,
        "JP Duminy": 117.36526946107784,
        "DJ Bravo": 109.478672985782,
        "AM Nayar": 132.25806451612902,
        "Harbhajan Singh": 159.64912280701756,
        "Z Khan": 72.72727272727273,
        "PA Patel": 122.65625,
        "SK Raina": 143.17460317460316,
        "ML Hayden": 153.0562347188264,
        "A Flintoff": 133.33333333333331,
        "MS Dhoni": 127.98507462686568,
        "JDP Oram": 96.80851063829788,
        "S Badrinath": 116.46341463414633,
        "Joginder Sharma": 117.64705882352942,
        "T Thushara": 42.857142857142854,
        "JD Ryder": 129.54545454545453,
        "LRPL Taylor": 142.10526315789474,
        "KP Pietersen": 114.77272727272727,
        "RV Uthappa": 106.81818181818181,
        "R Dravid": 117.64705882352942,
        "V Kohli": 115.17857142857142,
        "B Akhil": 120,
        "P Kumar": 147.72727272727272,
        "R Vinay Kumar": 109.09090909090908,
        "GC Smith": 102.27272727272727,
        "SA Asnodkar": 106.18556701030928,
        "Niraj Patel": 52.5,
        "T Henderson": 92.3076923076923,
        "YK Pathan": 141.66666666666669,
        "AD Mascarenhas": 108.10810810810811,
        "RA Jadeja": 113.86861313868613,
        "SK Warne": 99.12280701754386,
        "M Rawat": 90,
        "MM Patel": 143.47826086956522,
        "Kamran Khan": 100,
        "RS Bopara": 120.96774193548387,
        "K Goel": 97.14285714285714,
        "KC Sangakkara": 109.45121951219512,
        "Yuvraj Singh": 118.41269841269842,
        "DPMD Jayawardene": 134.5029239766082,
        "IK Pathan": 137.88819875776397,
        "G Gambhir": 106.38297872340425,
        "V Sehwag": 150.68493150684932,
        "BB McCullum": 125.10121457489878,
        "CH Gayle": 134,
        "SC Ganguly": 93.89671361502347,
        "BJ Hodge": 118.92744479495268,
        "A Chopra": 72.22222222222221,
        "LR Shukla": 101.16279069767442,
        "MC Henriques": 97.43589743589743,
        "AB Agarkar": 120.6896551724138,
        "M Kartik": 105,
        "I Sharma": 170,
        "AB Dinda": 66.66666666666666,
        "AC Gilchrist": 155.22388059701493,
        "HH Gibbs": 117.20116618075802,
        "VVS Laxman": 61.29032258064516,
        "RG Sharma": 118.8087774294671,
        "JA Morkel": 139.72602739726028,
        "JH Kallis": 110.63218390804596,
        "R Bishnoi": 118.75,
        "DW Steyn": 0,
        "A Kumble": 106.25,
        "T Kohli": 50,
        "PP Chawla": 100,
        "SB Styris": 175,
        "Y Venugopal Rao": 110.25641025641026,
        "DB Ravi Teja": 104.22535211267605,
        "FH Edwards": 100,
        "KV Sharma": 33.33333333333333,
        "AB de Villiers": 131.47632311977716,
        "TM Dilshan": 126.68539325842696,
        "KD Karthik": 135.26785714285714,
        "MK Tiwary": 90,
        "MS Gony": 185.71428571428572,
        "M Muralitharan": 114.28571428571428,
        "PC Valthaty": 50,
        "RJ Quiney": 108.57142857142857,
        "AS Raut": 127.69230769230768,
        "SB Bangar": 55.55555555555556,
        "Yashpal Singh": 75.38461538461539,
        "Pankaj Singh": 100,
        "DR Smith": 167.1641791044776,
        "RP Singh": 52.94117647058824,
        "PP Ojha": 33.33333333333333,
        "PR Shah": 107.40740740740742,
        "MV Boucher": 131.40495867768595,
        "M Manhas": 125,
        "WA Mota": 76.59574468085107,
        "AA Bilakhia": 93.82716049382715,
        "SS Tiwary": 108.33333333333333,
        "AN Ghosh": 100,
        "BAW Mendis": 0,
        "DL Vettori": 115.625,
        "A Mishra": 180,
        "PJ Sangwan": 60,
        "MN van Wyk": 129.62962962962962,
        "WP Saha": 178.0487804878049,
        "SP Goswami": 96.61016949152543,
        "RE van der Merwe": 130.3030303030303,
        "MK Pandey": 143.33333333333334,
        "RR Powar": 109.52380952380953,
        "TL Suman": 126.42487046632125,
        "Shoaib Ahmed": 50,
        "SK Trivedi": 57.89473684210527,
        "GR Napier": 93.75,
        "AM Rahane": 125,
        "KP Appanna": 100,
        "SM Katich": 126.05042016806722,
        "TM Srivastava": 0,
        "LA Carseldine": 122.53521126760563,
        "NV Ojha": 123.18840579710144,
        "SM Harwood": 92.85714285714286,
        "M Vijay": 97.10144927536231,
        "SB Jakati": 131.25,
        "L Balaji": 70,
        "DA Warner": 124.81751824817518,
        "R Bhatia": 50,
        "S Sohal": 126,
        "W Jaffer": 89.47368421052632,
        "RJ Harris": 122.22222222222223,
        "S Sreesanth": 53.84615384615385,
        "RR Raje": 133.33333333333331,
        "DS Kulkarni": 61.111111111111114,
        "D du Preez": 76.92307692307693,
        "L Ronchi": 50,
        "A Symonds": 151.46198830409355,
        "B Lee": 91.17647058823529,
        "WPUJC Vaas": 142.85714285714286,
        "M Morkel": 112.5,
        "DJ Hussey": 168.85245901639345,
        "AD Mathews": 121.42857142857142,
        "LA Pomersbach": 93.75,
        "SD Chitnis": 100,
        "J Botha": 126.19047619047619,
        "YV Takawale": 81.81818181818183,
        "C Nanda": 0,
        "SL Malinga": 0,
        "MF Maharoof": 100,
        "A Nehra": 100,
        "Mashrafe Mortaza": 100,
        "A Singh": 100,
        "GJ Bailey": 134.21052631578948,
        "AB McDonald": 75,
        "Y Nagar": 100,
        "SS Shaikh": 150,
        "R Ashwin": 72.72727272727273,
        "Mohammad Ashraful": 50
    },
    "2010": {
        "MK Tiwary": 132.6315789473684,
        "SC Ganguly": 120.64220183486239,
        "CA Pujara": 113.4453781512605,
        "BJ Hodge": 112.90322580645163,
        "OA Shah": 125.53191489361701,
        "AD Mathews": 129.44162436548223,
        "AC Gilchrist": 155.77889447236183,
        "VVS Laxman": 109.8360655737705,
        "HH Gibbs": 117.6954732510288,
        "A Symonds": 128.45070422535213,
        "RG Sharma": 136.1290322580645,
        "Anirudh Singh": 95.65217391304348,
        "TL Suman": 121.21212121212122,
        "WPUJC Vaas": 93.93939393939394,
        "Jaskaran Singh": 80,
        "ST Jayasuriya": 114.28571428571428,
        "SR Tendulkar": 135.9918200408998,
        "AP Tare": 136.58536585365854,
        "SS Tiwary": 136.6771159874608,
        "AT Rayudu": 148.8372093023256,
        "R Sathish": 124.48979591836735,
        "Harbhajan Singh": 182.53968253968253,
        "R McLaren": 102.8169014084507,
        "GC Smith": 121.62162162162163,
        "NV Ojha": 135.0515463917526,
        "AA Jhunjhunwala": 113.52941176470588,
        "YK Pathan": 163.33333333333334,
        "P Dogra": 100.92592592592592,
        "AD Mascarenhas": 118.18181818181819,
        "A Uniyal": 66.66666666666666,
        "SK Warne": 61.904761904761905,
        "RS Bopara": 117.04035874439462,
        "MS Bisla": 130.10752688172042,
        "KC Sangakkara": 139.23076923076923,
        "Yuvraj Singh": 132.03883495145632,
        "DPMD Jayawardene": 150.4823151125402,
        "IK Pathan": 153.72340425531914,
        "M Kaif": 96.66666666666667,
        "PP Chawla": 108.06451612903226,
        "RR Powar": 100,
        "S Sreesanth": 152.38095238095238,
        "YA Abdulla": 100,
        "G Gambhir": 134.08071748878925,
        "V Sehwag": 165.92920353982302,
        "TM Dilshan": 94.11764705882352,
        "AB de Villiers": 95.90163934426229,
        "KD Karthik": 124.06639004149378,
        "M Manhas": 107.28476821192052,
        "MF Maharoof": 137.5,
        "JH Kallis": 118.6046511627907,
        "SP Goswami": 100,
        "MK Pandey": 115.28384279475983,
        "V Kohli": 148.8372093023256,
        "EJG Morgan": 120,
        "R Dravid": 131.52709359605913,
        "RV Uthappa": 174.55357142857142,
        "RE van der Merwe": 50,
        "P Kumar": 62.5,
        "M Vijay": 158.2236842105263,
        "ML Hayden": 124.74576271186442,
        "SK Raina": 147.66839378238342,
        "S Badrinath": 122.00647249190939,
        "JM Kemp": 108,
        "MS Dhoni": 139.53488372093022,
        "JA Morkel": 155.55555555555557,
        "R Ashwin": 86.48648648648648,
        "L Balaji": 94.73684210526315,
        "M Muralitharan": 50,
        "S Tyagi": 75,
        "SA Asnodkar": 125,
        "WP Saha": 134.6153846153846,
        "LR Shukla": 155.55555555555557,
        "RS Gavaskar": 33.33333333333333,
        "SE Bond": 50,
        "M Kartik": 104.76190476190477,
        "I Sharma": 35.294117647058826,
        "KA Pollard": 186.8421052631579,
        "DJ Bravo": 116.98113207547169,
        "A Mishra": 83.33333333333334,
        "PJ Sangwan": 107.14285714285714,
        "S Ladda": 20,
        "DP Nannes": 33.33333333333333,
        "MJ Lumb": 152.3076923076923,
        "DR Martyn": 80.76923076923077,
        "S Narwal": 125,
        "M Morkel": 90,
        "MM Patel": 125,
        "SK Trivedi": 209.0909090909091,
        "DA Warner": 148.96907216494844,
        "R Bhatia": 147.05882352941177,
        "PA Patel": 97.53086419753086,
        "RP Singh": 60,
        "AB Barath": 102.32558139534885,
        "Bipul Sharma": 128.57142857142858,
        "FY Fazal": 117.61006289308176,
        "AC Voges": 132.86713286713288,
        "Z Khan": 200,
        "MD Mishra": 123.80952380952381,
        "Y Venugopal Rao": 81.3953488372093,
        "MC Henriques": 220.00000000000003,
        "Y Nagar": 57.14285714285714,
        "UT Yadav": 100,
        "J Theron": 50,
        "MS Gony": 60,
        "CH Gayle": 164.46700507614213,
        "S Dhawan": 117.77777777777779,
        "MV Boucher": 144.44444444444443,
        "GJ Bailey": 84.61538461538461,
        "SJ Srivastava": 100,
        "R Sharma": 111.53846153846155,
        "Mandeep Singh": 57.14285714285714,
        "DJ Hussey": 114.6067415730337,
        "K Goel": 95,
        "B Lee": 118.18181818181819,
        "KM Jadhav": 133.33333333333331,
        "AB McDonald": 127.77777777777777,
        "R Vinay Kumar": 88.57142857142857,
        "DW Steyn": 100,
        "A Kumble": 66.66666666666666,
        "SW Tait": 92.3076923076923,
        "KB Arun Karthik": 80,
        "T Thushara": 100,
        "KAJ Roach": 111.11111111111111,
        "PD Collingwood": 135.66878980891718,
        "AB Agarkar": 140,
        "CK Langeveldt": 0,
        "SE Marsh": 138.2608695652174,
        "VS Malik": 160,
        "KP Pietersen": 156.4102564102564,
        "CL White": 154.83870967741936,
        "SR Watson": 162.39316239316238,
        "AS Raut": 116.66666666666667,
        "RJ Harris": 115.38461538461537,
        "PP Ojha": 37.5,
        "DL Vettori": 144.44444444444443,
        "LRPL Taylor": 122.36842105263158,
        "A Mithun": 166.66666666666669,
        "KP Appanna": 66.66666666666666,
        "AP Dole": 166.66666666666669,
        "DR Smith": 92,
        "AA Bilakhia": 66.66666666666666,
        "MEK Hussey": 90.69767441860465,
        "AN Ahmed": 75,
        "BB McCullum": 117.24137931034481,
        "JP Duminy": 123.48484848484848,
        "RS Sodhi": 200,
        "DE Bollinger": 131.25,
        "AB Dinda": 0,
        "BAW Mendis": 100,
        "S Sriram": 112.90322580645163,
        "A Nehra": 120,
        "B Sumanth": 94.73684210526315,
        "C Madan": 104.76190476190477,
        "Iqbal Abdulla": 100,
        "AG Paunikar": 0,
        "MR Marsh": 100,
        "AM Nayar": 123.52941176470588,
        "Pankaj Singh": 50,
        "AJ Finch": 110.5263157894737,
        "STR Binny": 160,
        "S Anirudha": 216.66666666666666,
        "Harmeet Singh": 0,
        "CRD Fernando": 100,
        "SL Malinga": 100
    },
    "2011": {
        "S Anirudha": 116.88311688311688,
        "M Vijay": 128.8184438040346,
        "SK Raina": 135.43543543543544,
        "MS Dhoni": 160.72874493927125,
        "JA Morkel": 137.03703703703704,
        "SB Styris": 250,
        "MS Bisla": 92.04545454545455,
        "JH Kallis": 115.54404145077721,
        "YK Pathan": 142.64705882352942,
        "MK Tiwary": 112.20238095238095,
        "EJG Morgan": 123.14049586776858,
        "G Gambhir": 124.4712990936556,
        "LR Shukla": 140,
        "Iqbal Abdulla": 125,
        "R Bhatia": 121.73913043478262,
        "S Dhawan": 133.65079365079364,
        "IR Jaggi": 88.88888888888889,
        "KC Sangakkara": 127.55102040816327,
        "B Chipli": 122.67441860465115,
        "JP Duminy": 119.31818181818181,
        "DT Christian": 122.50000000000001,
        "DB Ravi Teja": 129.93197278911566,
        "DW Steyn": 116.66666666666667,
        "A Mishra": 144.23076923076923,
        "I Sharma": 80,
        "AG Paunikar": 93.33333333333333,
        "R Dravid": 115.77287066246056,
        "J Botha": 119.19191919191918,
        "LRPL Taylor": 130.96774193548387,
        "BB McCullum": 136.3013698630137,
        "VVS Laxman": 121.42857142857142,
        "DPMD Jayawardene": 122.30483271375465,
        "BJ Hodge": 125.71428571428571,
        "RA Jadeja": 125.7510729613734,
        "RV Gomez": 116.66666666666667,
        "PA Patel": 111.70212765957446,
        "MA Agarwal": 124.03100775193798,
        "TM Dilshan": 128.64864864864865,
        "V Kohli": 123.99150743099787,
        "AB de Villiers": 133.87755102040816,
        "SS Tiwary": 102.59067357512954,
        "AUK Pathan": 194.44444444444443,
        "DA Warner": 122.85714285714286,
        "V Sehwag": 179.35222672064776,
        "UBT Chand": 30,
        "AJ Finch": 103.921568627451,
        "NV Ojha": 103.59281437125749,
        "Y Venugopal Rao": 126.82926829268293,
        "IK Pathan": 117.36111111111111,
        "RE van der Merwe": 93.33333333333333,
        "M Morkel": 178.26086956521738,
        "UT Yadav": 100,
        "AB Dinda": 0,
        "DJ Jacobs": 114.77272727272727,
        "SR Tendulkar": 120.43222003929273,
        "AT Rayudu": 115.49295774647888,
        "RG Sharma": 126.07260726072607,
        "AC Gilchrist": 141.55844155844156,
        "SE Marsh": 151.2893982808023,
        "PC Valthaty": 139.8860398860399,
        "KD Karthik": 135.64814814814815,
        "AM Nayar": 106.15384615384616,
        "Sunny Singh": 141.93548387096774,
        "R McLaren": 95.04950495049505,
        "PP Chawla": 98.0392156862745,
        "P Kumar": 90.9090909090909,
        "NJ Rimmington": 100,
        "GC Smith": 84.90566037735849,
        "M Manhas": 96,
        "JD Ryder": 151.74129353233832,
        "RV Uthappa": 133.80281690140845,
        "Yuvraj Singh": 131.2267657992565,
        "AL Menaria": 119.10828025477707,
        "AM Rahane": 127.36842105263158,
        "S Badrinath": 130.89171974522293,
        "R Vinay Kumar": 106.25,
        "S Sreesanth": 33.33333333333333,
        "RP Singh": 75,
        "MD Mishra": 113.33333333333333,
        "WD Parnell": 102.49999999999999,
        "R Sharma": 123.80952380952381,
        "S Sohal": 135,
        "Z Khan": 100,
        "CA Pujara": 116.12903225806453,
        "JJ van der Wath": 135.71428571428572,
        "R Ninan": 66.66666666666666,
        "DL Vettori": 103.33333333333334,
        "S Aravind": 150,
        "SR Watson": 132.421875,
        "MEK Hussey": 122.69503546099291,
        "MS Gony": 100,
        "MS Wade": 71.875,
        "JR Hopes": 125.92592592592592,
        "FY Fazal": 105.26315789473684,
        "AS Raut": 116.07142857142858,
        "SK Warne": 55.55555555555556,
        "A Singh": 50,
        "SW Tait": 111.11111111111111,
        "SK Trivedi": 0,
        "CL White": 96.3302752293578,
        "Y Nagar": 116.66666666666667,
        "TD Paine": 55.55555555555556,
        "M Kartik": 100,
        "SB Wagh": 66.66666666666666,
        "AC Thomas": 50,
        "JEC Franklin": 144.15584415584414,
        "A Symonds": 100.69930069930071,
        "KM Jadhav": 78.26086956521739,
        "RR Powar": 91.66666666666666,
        "Shakib Al Hasan": 134.7826086956522,
        "B Lee": 62.5,
        "L Balaji": 200,
        "SA Asnodkar": 128.57142857142858,
        "STR Binny": 127.58620689655173,
        "DH Yagnik": 86.95652173913044,
        "R Sathish": 96.42857142857143,
        "KA Pollard": 117.14285714285715,
        "R Ashwin": 50,
        "Joginder Sharma": 0,
        "S Randiv": 66.66666666666666,
        "DE Bollinger": 0,
        "BJ Haddin": 180,
        "CH Gayle": 187.09677419354838,
        "DJ Hussey": 107.6923076923077,
        "RJ Harris": 82.05128205128204,
        "NLTC Perera": 92.5925925925926,
        "M Muralitharan": 87.5,
        "MK Pandey": 113.04347826086956,
        "NL McCullum": 127.27272727272727,
        "JE Taylor": 100,
        "A Mithun": 166.66666666666669,
        "J Syed Mohammad": 145.45454545454547,
        "MR Marsh": 104.08163265306123,
        "SP Goswami": 103.33333333333334,
        "RN ten Doeschate": 146.05263157894737,
        "TR Birt": 138.5964912280702,
        "Harbhajan Singh": 150,
        "SL Malinga": 114.28571428571428,
        "AG Murtaza": 40,
        "M Kaif": 122.85714285714286,
        "Harpreet Singh": 70,
        "M Klinger": 100,
        "B Akhil": 144.44444444444443,
        "Bipul Sharma": 127.77777777777777,
        "AC Blizzard": 143.1818181818182,
        "TL Suman": 130.18867924528303,
        "AA Jhunjhunwala": 94.44444444444444,
        "MV Boucher": 166.66666666666669,
        "I Malhotra": 175,
        "L Ablish": 0,
        "CA Ingram": 103.84615384615385,
        "AB Agarkar": 142.85714285714286,
        "S Nadeem": 0,
        "P Parameswaran": 100,
        "Mandeep Singh": 117.07317073170731,
        "SD Chitnis": 100,
        "SJ Srivastava": 133.33333333333331,
        "CJ Ferguson": 94.33962264150944,
        "SC Ganguly": 94.82758620689656,
        "DS Kulkarni": 50,
        "MM Patel": 0,
        "AB McDonald": 114.28571428571428,
        "OA Shah": 186.66666666666666,
        "LA Pomersbach": 131.70731707317074,
        "KB Arun Karthik": 137.5,
        "MJ Lumb": 0,
        "S Sriram": 57.14285714285714,
        "VR Aaron": 0,
        "PR Shah": 100,
        "JDP Oram": 0,
        "AA Chavan": 100,
        "ND Doshi": 0,
        "B Kumar": 100,
        "CK Langeveldt": 160,
        "WP Saha": 118.46153846153847,
        "Y Gnaneswara Rao": 111.11111111111111,
        "S Rana": 142.85714285714286,
        "BA Bhatt": 0,
        "DJ Bravo": 220.00000000000003,
        "AN Ahmed": 150
    },
    "2012": {
        "F du Plessis": 131.8181818181818,
        "M Vijay": 128.4132841328413,
        "SK Raina": 137.7245508982036,
        "DJ Bravo": 142.80442804428043,
        "JA Morkel": 162.85714285714286,
        "S Badrinath": 108.51063829787233,
        "MS Dhoni": 131.56028368794327,
        "RA Jadeja": 130.26315789473685,
        "R Ashwin": 126.66666666666666,
        "SB Jakati": 77.77777777777779,
        "DE Bollinger": 75,
        "RE Levi": 127.14285714285714,
        "SR Tendulkar": 118.98305084745762,
        "RG Sharma": 129.10662824207492,
        "AT Rayudu": 132.9501915708812,
        "JEC Franklin": 101.3157894736842,
        "BB McCullum": 106.2937062937063,
        "JH Kallis": 109.71867007672633,
        "G Gambhir": 144.1588785046729,
        "MK Tiwary": 109.23694779116467,
        "YK Pathan": 121.78770949720669,
        "DB Das": 138.54166666666669,
        "LR Shukla": 131.57894736842107,
        "R Bhatia": 123.33333333333334,
        "B Lee": 204.76190476190476,
        "Iqbal Abdulla": 66.66666666666666,
        "AJ Finch": 111.53846153846155,
        "V Sehwag": 165.93059936908517,
        "IK Pathan": 142.10526315789474,
        "GJ Maxwell": 80,
        "MK Pandey": 139.0909090909091,
        "WD Parnell": 100,
        "SC Ganguly": 103.48432055749129,
        "RV Uthappa": 119.6078431372549,
        "CJ Ferguson": 82.25806451612904,
        "SPD Smith": 138.60294117647058,
        "MN Samuels": 109.6774193548387,
        "B Kumar": 102.4390243902439,
        "M Kartik": 123.80952380952381,
        "KD Karthik": 114.28571428571428,
        "SA Yadav": 0,
        "KA Pollard": 143.20987654320987,
        "Harbhajan Singh": 136.58536585365854,
        "SL Malinga": 107.27272727272728,
        "PP Ojha": 66.66666666666666,
        "MM Patel": 33.33333333333333,
        "R Dravid": 113.67924528301887,
        "AM Rahane": 131.02678571428572,
        "AL Menaria": 111.76470588235294,
        "BJ Hodge": 141.11111111111111,
        "OA Shah": 140.5204460966543,
        "KK Cooper": 195,
        "AC Gilchrist": 126.02739726027397,
        "PC Valthaty": 64,
        "SE Marsh": 121.875,
        "AM Nayar": 104.08163265306123,
        "Mandeep Singh": 128.65329512893985,
        "DJ Hussey": 132.9073482428115,
        "Bipul Sharma": 156.52173913043478,
        "PP Chawla": 121.59090909090908,
        "JP Faulkner": 107.14285714285714,
        "P Kumar": 122.58064516129032,
        "Harmeet Singh": 214.28571428571428,
        "AB McDonald": 142.85714285714286,
        "CA Pujara": 85.71428571428571,
        "V Kohli": 112.61261261261262,
        "AB de Villiers": 163.0541871921182,
        "SS Tiwary": 115.69767441860466,
        "MA Agarwal": 143.55828220858896,
        "DL Vettori": 121.42857142857142,
        "R Vinay Kumar": 115.87301587301589,
        "HV Patel": 113.33333333333333,
        "NV Ojha": 119.1304347826087,
        "Y Venugopal Rao": 106.9767441860465,
        "Y Nagar": 118.93939393939394,
        "DAJ Bracewell": 150,
        "M Morkel": 60,
        "DJ Harris": 115.53398058252426,
        "S Dhawan": 130.13392857142858,
        "PA Patel": 128.4848484848485,
        "CL White": 150.45871559633028,
        "B Chipli": 112.12121212121211,
        "DT Christian": 124.59016393442623,
        "MS Gony": 66.66666666666666,
        "DB Ravi Teja": 200,
        "DW Steyn": 100,
        "Ankit Sharma": 138.46153846153845,
        "SP Goswami": 104.34782608695652,
        "SP Narine": 142.85714285714286,
        "JD Ryder": 124.07407407407408,
        "R Sharma": 57.14285714285714,
        "AD Mascarenhas": 87.5,
        "KC Sangakkara": 118.5185185185185,
        "A Mishra": 89.47368421052632,
        "TL Suman": 100,
        "MS Bisla": 137.64705882352942,
        "RN ten Doeschate": 110.00000000000001,
        "Shakib Al Hasan": 140.25974025974025,
        "CH Gayle": 161.44067796610167,
        "Z Khan": 70.58823529411765,
        "KP Pietersen": 147.14285714285717,
        "DPMD Jayawardene": 117.16171617161717,
        "J Botha": 111.11111111111111,
        "AA Chavan": 137.5,
        "A Singh": 50,
        "SK Trivedi": 83.33333333333334,
        "GB Hogg": 107.14285714285714,
        "RR Bhatkal": 0,
        "AD Mathews": 125.23364485981307,
        "M Manhas": 128.2828282828283,
        "A Nehra": 100,
        "AB Dinda": 60,
        "JP Duminy": 132.4742268041237,
        "AA Jhunjhunwala": 104.16666666666667,
        "LRPL Taylor": 117.51412429378531,
        "P Dogra": 64,
        "BA Bhatt": 600,
        "M Kaif": 93.33333333333333,
        "S Aravind": 175,
        "M Muralitharan": 75,
        "DJ Jacobs": 16.666666666666664,
        "CJ McKay": 66.66666666666666,
        "RP Singh": 75,
        "DH Yagnik": 185.71428571428572,
        "TM Dilshan": 117.58241758241759,
        "DA Warner": 175.1552795031056,
        "N Saini": 101.3986013986014,
        "DA Miller": 135.5263157894737,
        "Azhar Mahmood": 132.41379310344828,
        "P Negi": 127.58620689655173,
        "NLTC Perera": 58.333333333333336,
        "IR Jaggi": 72.72727272727273,
        "STR Binny": 140.2985074626866,
        "RJ Peterson": 115.625,
        "AC Thomas": 126.66666666666666,
        "AC Blizzard": 0,
        "WP Saha": 72.72727272727273,
        "KMDN Kulasekara": 200,
        "A Ashish Reddy": 148.14814814814815,
        "V Pratap Singh": 0,
        "MEK Hussey": 114.22594142259415,
        "BB Samantray": 100,
        "MJ Clarke": 108.33333333333333,
        "SR Watson": 155.29411764705884,
        "AUK Pathan": 87.5,
        "Gurkeerat Singh": 172.22222222222223,
        "RJ Harris": 200,
        "DR Smith": 164.35643564356434,
        "J Syed Mohammad": 400,
        "S Nadeem": 0,
        "VR Aaron": 33.33333333333333,
        "AP Majumdar": 118.42105263157893,
        "SD Chitnis": 107.8125,
        "PA Reddy": 122.22222222222223,
        "J Theron": 175,
        "S Anirudha": 288.88888888888886,
        "MD Mishra": 200,
        "K Upadhyay": 137.5,
        "HH Gibbs": 100,
        "P Awana": 100,
        "UBT Chand": 105.71428571428572,
        "AD Russell": 181.4814814814815,
        "UT Yadav": 40,
        "A Chandila": 0,
        "CA Lynn": 77.77777777777779,
        "Harpreet Singh": 100,
        "AG Murtaza": 75,
        "P Parameswaran": 50,
        "DS Kulkarni": 200,
        "Sunny Gupta": 0
    },
    "2013": {
        "UBT Chand": 105.62499999999999,
        "DPMD Jayawardene": 111.18012422360249,
        "DA Warner": 129.3051359516616,
        "MC Juneja": 102.98507462686568,
        "NV Ojha": 100,
        "J Botha": 82.6923076923077,
        "IK Pathan": 100,
        "AD Russell": 100,
        "S Nadeem": 56.00000000000001,
        "A Nehra": 25,
        "MS Bisla": 123.23651452282158,
        "G Gambhir": 123.72881355932203,
        "JH Kallis": 99.6923076923077,
        "MK Tiwary": 107.80141843971631,
        "EJG Morgan": 136.69354838709677,
        "YK Pathan": 141.39344262295083,
        "CH Gayle": 161.41078838174275,
        "TM Dilshan": 97.75280898876404,
        "V Kohli": 140.12738853503183,
        "MA Agarwal": 113.11475409836065,
        "DT Christian": 50,
        "KK Nair": 100,
        "KB Arun Karthik": 122.50000000000001,
        "RT Ponting": 77.02702702702703,
        "SR Tendulkar": 125.6198347107438,
        "KD Karthik": 127.31591448931117,
        "RG Sharma": 132.68765133171914,
        "AT Rayudu": 117.87234042553192,
        "Harbhajan Singh": 145.1219512195122,
        "KA Pollard": 151.3793103448276,
        "PA Reddy": 91.34615384615384,
        "PA Patel": 116.85823754789273,
        "KC Sangakkara": 93.28358208955224,
        "CL White": 118.5929648241206,
        "NLTC Perera": 147.97687861271675,
        "GH Vihari": 89.89547038327527,
        "A Ashish Reddy": 140,
        "DB Ravi Teja": 88.88888888888889,
        "RV Uthappa": 118.48958333333333,
        "MK Pandey": 101.44927536231884,
        "MN Samuels": 61.53846153846154,
        "Yuvraj Singh": 127.08333333333333,
        "LRPL Taylor": 84.4155844155844,
        "AM Nayar": 95.8904109589041,
        "MR Marsh": 133.0275229357798,
        "AD Mathews": 123.40425531914893,
        "B Kumar": 73.61111111111111,
        "R Sharma": 75,
        "AB Dinda": 112.5,
        "MDKJ Perera": 125,
        "AM Rahane": 108.72340425531914,
        "R Dravid": 114.78060046189375,
        "STR Binny": 150.73891625615764,
        "BJ Hodge": 141.51785714285714,
        "AL Menaria": 50,
        "KK Cooper": 177.27272727272728,
        "R Shukla": 100,
        "DR Smith": 127.50716332378222,
        "MEK Hussey": 131.20689655172413,
        "M Vijay": 110.92150170648465,
        "SK Raina": 151.8918918918919,
        "DJ Bravo": 118.01801801801801,
        "S Badrinath": 105.6910569105691,
        "MS Dhoni": 161.74496644295303,
        "RA Jadeja": 152.89855072463766,
        "R Ashwin": 77.08333333333334,
        "B Laughlin": 57.14285714285714,
        "AS Rajpoot": 50,
        "TL Suman": 96.29629629629629,
        "AC Gilchrist": 130.34188034188034,
        "Mandeep Singh": 120.70484581497797,
        "M Vohra": 138.79310344827587,
        "DJ Hussey": 113.33333333333333,
        "MC Henriques": 135.71428571428572,
        "R Vinay Kumar": 161.36363636363635,
        "M Kartik": 66.66666666666666,
        "JD Unadkat": 100,
        "DW Steyn": 148.64864864864865,
        "SR Watson": 146.92307692307693,
        "DH Yagnik": 140.2061855670103,
        "S Sreesanth": 50,
        "LR Shukla": 30.76923076923077,
        "R Bhatia": 125,
        "B Lee": 210,
        "Mohammed Shami": 62.5,
        "SP Narine": 120,
        "BMAJ Mendis": 92,
        "KM Jadhav": 123.62204724409449,
        "M Morkel": 193.33333333333334,
        "UT Yadav": 102.63157894736842,
        "Gurkeerat Singh": 119.38775510204083,
        "Azhar Mahmood": 132.91139240506328,
        "R Sathish": 146.15384615384613,
        "PP Chawla": 116.66666666666667,
        "RJ Harris": 66.66666666666666,
        "P Kumar": 134.14634146341464,
        "P Awana": 11.11111111111111,
        "R McLaren": 60,
        "PJ Sangwan": 400,
        "AB de Villiers": 169.95515695067266,
        "JP Faulkner": 101.78571428571428,
        "AJ Finch": 139.24418604651163,
        "V Sehwag": 130.327868852459,
        "A Mishra": 95.09803921568627,
        "R Rampaul": 116.21621621621621,
        "CH Morris": 88.23529411764706,
        "KV Sharma": 102.24719101123596,
        "SV Samson": 116.85393258426966,
        "SPD Smith": 120.89552238805969,
        "S Anirudha": 0,
        "JA Morkel": 127.77777777777777,
        "DA Miller": 169.921875,
        "MS Gony": 174.07407407407408,
        "DB Das": 106.66666666666667,
        "SMSM Senanayake": 64.70588235294117,
        "BJ Rohrer": 141.3793103448276,
        "KL Rahul": 166.66666666666669,
        "AB McDonald": 0,
        "J Syed Mohammad": 76.92307692307693,
        "Q de Kock": 50,
        "BB Samantray": 120.37037037037037,
        "R Dhawan": 144.44444444444443,
        "MG Johnson": 129.41176470588235,
        "SL Malinga": 76.92307692307693,
        "PP Ojha": 50,
        "AB Agarkar": 80,
        "PC Valthaty": 76.92307692307693,
        "AD Mascarenhas": 125,
        "L Balaji": 100,
        "A Chandila": 66.66666666666666,
        "SW Tait": 50,
        "SK Trivedi": 75,
        "SS Tiwary": 118.69158878504673,
        "LJ Wright": 174.6031746031746,
        "M Manhas": 92.85714285714286,
        "AG Murtaza": 125,
        "IC Pandey": 0,
        "SE Marsh": 124.80314960629921,
        "CM Gautam": 134.28571428571428,
        "S Dhawan": 124.42748091603053,
        "X Thalaivan Sargunam": 62.5,
        "DJG Sammy": 136.02941176470588,
        "WP Saha": 128.57142857142858,
        "BB McCullum": 150,
        "A Mukund": 90.9090909090909,
        "OA Shah": 108.33333333333333,
        "KW Richardson": 97.14285714285714,
        "S Narwal": 150,
        "LA Pomersbach": 110.34482758620689,
        "BAW Mendis": 66.66666666666666,
        "CA Pujara": 95.95959595959596,
        "MM Sharma": 0,
        "Iqbal Abdulla": 69.23076923076923,
        "RN ten Doeschate": 145.9016393442623,
        "UA Birla": 60,
        "M Rawat": 62.5,
        "WD Parnell": 71.42857142857143,
        "Parvez Rasool": 75,
        "K Upadhyay": 100,
        "GJ Maxwell": 133.33333333333331,
        "Harmeet Singh": 75,
        "Sandeep Sharma": 0,
        "A Mithun": 100,
        "RE van der Merwe": 104,
        "S Kaul": 100,
        "AP Tare": 146.42857142857142,
        "Sachin Baby": 57.14285714285714,
        "PV Tambe": 100,
        "NM Coulter-Nile": 150,
        "RV Gomez": 400,
        "B Chipli": 115.78947368421053,
        "P Dogra": 85.71428571428571
    },
    "2014": {
        "G Gambhir": 121.28378378378379,
        "JH Kallis": 117.55725190839695,
        "MK Pandey": 122.06703910614524,
        "RV Uthappa": 140.41237113402062,
        "YK Pathan": 161.9047619047619,
        "Shakib Al Hasan": 148.75,
        "SA Yadav": 146.34146341463415,
        "MEK Hussey": 118.18181818181819,
        "AP Tare": 135.29411764705884,
        "AT Rayudu": 127.79661016949153,
        "RG Sharma": 129.3159609120521,
        "KA Pollard": 137.37864077669903,
        "CJ Anderson": 148.3695652173913,
        "Harbhajan Singh": 142.85714285714286,
        "CM Gautam": 128.69565217391303,
        "MA Agarwal": 128.26086956521738,
        "M Vijay": 116.49484536082475,
        "KD Karthik": 129.1828793774319,
        "MK Tiwary": 130.327868852459,
        "JP Duminy": 139.86928104575162,
        "LRPL Taylor": 105.08474576271188,
        "PA Patel": 115.42553191489363,
        "NJ Maddinson": 114.28571428571428,
        "V Kohli": 123.9202657807309,
        "Yuvraj Singh": 137.84722222222223,
        "DR Smith": 140.94117647058823,
        "BB McCullum": 124.34017595307918,
        "SK Raina": 146.48648648648648,
        "MS Dhoni": 155.8139534883721,
        "DJ Bravo": 266.66666666666663,
        "CA Pujara": 107.03125,
        "V Sehwag": 147.30538922155688,
        "GJ Maxwell": 187.5,
        "AR Patel": 105,
        "DA Miller": 154.071661237785,
        "GJ Bailey": 137.89473684210526,
        "AJ Finch": 124.4360902255639,
        "DA Warner": 145.16971279373368,
        "S Dhawan": 126.58610271903324,
        "KL Rahul": 104.24242424242425,
        "DJG Sammy": 122.68041237113403,
        "Y Venugopal Rao": 124.61538461538461,
        "KV Sharma": 156.66666666666666,
        "AM Nayar": 94,
        "SV Samson": 126.81159420289856,
        "AM Rahane": 119.86531986531988,
        "SR Watson": 127.3170731707317,
        "STR Binny": 103.27868852459017,
        "BJ Hodge": 143.05555555555557,
        "R Bhatia": 127.27272727272727,
        "JP Faulkner": 190.9090909090909,
        "Z Khan": 200,
        "SL Malinga": 100,
        "PP Ojha": 75,
        "JJ Bumrah": 50,
        "AB de Villiers": 161.6600790513834,
        "JDS Neesham": 102.27272727272727,
        "SPD Smith": 141.73913043478262,
        "WP Saha": 147.05882352941177,
        "F du Plessis": 130.8016877637131,
        "RA Jadeja": 135.39823008849558,
        "M Manhas": 161.53846153846155,
        "R Ashwin": 106.25,
        "S Nadeem": 70.58823529411765,
        "Mohammed Shami": 50,
        "JD Unadkat": 50,
        "MG Johnson": 120,
        "IK Pathan": 107.01754385964912,
        "DW Steyn": 84.61538461538461,
        "A Mishra": 133.33333333333331,
        "B Kumar": 66.66666666666666,
        "TG Southee": 133.33333333333331,
        "DS Kulkarni": 137.03703703703704,
        "PV Tambe": 55.55555555555556,
        "CA Lynn": 117.3076923076923,
        "R Vinay Kumar": 85.71428571428571,
        "YV Takawale": 120.65217391304348,
        "JA Morkel": 114.6341463414634,
        "Q de Kock": 121.21212121212122,
        "KP Pietersen": 131.91489361702128,
        "S Rana": 115.15151515151516,
        "MA Starc": 114.28571428571428,
        "R Rampaul": 108.33333333333333,
        "AB Dinda": 55.55555555555556,
        "KK Nair": 143.82978723404256,
        "R Dhawan": 109.33333333333333,
        "L Balaji": 100,
        "Sandeep Sharma": 75,
        "PP Chawla": 165,
        "SP Narine": 80,
        "UT Yadav": 66.66666666666666,
        "M Morkel": 125,
        "KM Jadhav": 154.36893203883494,
        "CH Gayle": 111.70212765957446,
        "VR Aaron": 120,
        "MS Bisla": 33.33333333333333,
        "NV Ojha": 149.41176470588235,
        "BR Dunk": 125.71428571428571,
        "AD Russell": 40,
        "RR Rossouw": 97.5,
        "HV Patel": 216.66666666666666,
        "RN ten Doeschate": 168.75,
        "LR Shukla": 92.10526315789474,
        "Mandeep Singh": 120.83333333333333,
        "MC Henriques": 78.57142857142857,
        "KW Richardson": 50,
        "Shivam Sharma": 166.66666666666669,
        "YS Chahal": 100,
        "R Shukla": 90,
        "LMP Simmons": 136.78929765886286,
        "VH Zol": 126.08695652173914,
        "Ankit Sharma": 129.62962962962962,
        "DH Yagnik": 83.33333333333334,
        "M Vohra": 140.32921810699588,
        "KK Cooper": 157.14285714285714,
        "BCJ Cutting": 150,
        "Imran Tahir": 88.88888888888889,
        "S Kaul": 100,
        "DJ Hussey": 128.26086956521738,
        "AN Ahmed": 400,
        "UBT Chand": 42.857142857142854,
        "WD Parnell": 100,
        "SE Marsh": 152.94117647058823,
        "BE Hendricks": 0,
        "S Gopal": 110.00000000000001,
        "M de Lange": 50,
        "R Tewatia": 146.15384615384613,
        "VS Malik": 100,
        "S Anirudha": 75,
        "JO Holder": 177.77777777777777,
        "Karanveer Singh": 100,
        "P Kumar": 50,
        "MM Sharma": 100
    },
    "2015": {
        "RG Sharma": 145.5621301775148,
        "AJ Finch": 75.75757575757575,
        "AP Tare": 88.23529411764706,
        "AT Rayudu": 148.95833333333331,
        "CJ Anderson": 130,
        "RV Uthappa": 133.79790940766551,
        "G Gambhir": 120.13888888888889,
        "MK Pandey": 123.11827956989248,
        "SA Yadav": 141.2280701754386,
        "YK Pathan": 139.25619834710744,
        "DR Smith": 126.76470588235293,
        "BB McCullum": 161.4334470989761,
        "SK Raina": 124.45141065830721,
        "F du Plessis": 124.60567823343848,
        "RA Jadeja": 107.87401574803151,
        "MS Dhoni": 126.21359223300972,
        "DJ Bravo": 137.08609271523179,
        "R Ashwin": 168.75,
        "MM Sharma": 155.55555555555557,
        "MA Agarwal": 122.82608695652173,
        "CM Gautam": 80,
        "JA Morkel": 130,
        "SS Iyer": 128.61111111111111,
        "KM Jadhav": 139.28571428571428,
        "Yuvraj Singh": 119.53488372093024,
        "JP Duminy": 133.33333333333331,
        "NM Coulter-Nile": 110.00000000000001,
        "A Mishra": 75,
        "Imran Tahir": 83.33333333333334,
        "AM Rahane": 133.5697399527187,
        "SV Samson": 127.71084337349396,
        "SPD Smith": 135.24229074889868,
        "KK Nair": 127.89115646258504,
        "STR Binny": 126.47058823529412,
        "JP Faulkner": 134.7826086956522,
        "DJ Hooda": 157.57575757575756,
        "CH Morris": 168.08510638297872,
        "V Sehwag": 125.5813953488372,
        "WP Saha": 129.7560975609756,
        "M Vijay": 114.16309012875536,
        "GJ Maxwell": 133.91304347826087,
        "AR Patel": 123.03370786516854,
        "DA Miller": 138.0952380952381,
        "GJ Bailey": 136.92307692307693,
        "MG Johnson": 106.06060606060606,
        "Anureet Singh": 67.74193548387096,
        "Karanveer Singh": 73.33333333333333,
        "DA Warner": 160.05434782608697,
        "S Dhawan": 125.93856655290104,
        "KL Rahul": 117.29323308270676,
        "NV Ojha": 113.4920634920635,
        "RS Bopara": 121.66666666666666,
        "KS Williamson": 131.0344827586207,
        "KV Sharma": 125.28735632183907,
        "Parvez Rasool": 100,
        "AD Russell": 196.55172413793102,
        "Shakib Al Hasan": 132.25806451612902,
        "CH Gayle": 150.27932960893855,
        "V Kohli": 132.73657289002557,
        "KD Karthik": 125.21008403361344,
        "Mandeep Singh": 161.3861386138614,
        "AB de Villiers": 179.06976744186048,
        "DJG Sammy": 72.22222222222221,
        "SA Abbott": 160,
        "HV Patel": 169.23076923076923,
        "AN Ahmed": 200,
        "AD Mathews": 140.74074074074073,
        "TG Southee": 162.5,
        "R Dhawan": 112.12121212121211,
        "KA Pollard": 162.82527881040892,
        "J Suchith": 170,
        "Harbhajan Singh": 160.49382716049382,
        "VR Aaron": 300,
        "YS Chahal": 100,
        "PA Patel": 139.6078431372549,
        "UBT Chand": 131.0344827586207,
        "S Gopal": 100,
        "P Negi": 163.63636363636365,
        "A Nehra": 66.66666666666666,
        "RG More": 100,
        "EJG Morgan": 128.18791946308724,
        "A Ashish Reddy": 164.44444444444443,
        "LMP Simmons": 124.50331125827813,
        "R Vinay Kumar": 100,
        "P Kumar": 72,
        "NLTC Perera": 114.28571428571428,
        "Gurkeerat Singh": 92.6829268292683,
        "RN ten Doeschate": 140.9090909090909,
        "PP Chawla": 120.40816326530613,
        "SR Watson": 136.05947955390334,
        "HH Pandya": 179.41176470588235,
        "MS Bisla": 127.58620689655173,
        "RR Rossouw": 166.66666666666669,
        "D Wiese": 147.19101123595507,
        "Iqbal Abdulla": 141.1764705882353,
        "MK Tiwary": 105.17241379310344,
        "SE Marsh": 153.125,
        "MC Henriques": 138.3177570093458,
        "SN Khan": 159.1549295774648,
        "MA Starc": 78.57142857142857,
        "MJ McClenaghan": 260,
        "SL Malinga": 88.88888888888889,
        "DS Kulkarni": 41.66666666666667,
        "PV Tambe": 75,
        "GH Vihari": 113.88888888888889,
        "DW Steyn": 166.66666666666669,
        "B Kumar": 188.88888888888889,
        "Sandeep Sharma": 81.81818181818183,
        "S Nadeem": 33.33333333333333,
        "DJ Muthuswami": 33.33333333333333,
        "M Vohra": 107.31707317073172,
        "J Botha": 213.33333333333334,
        "SS Tiwary": 146.34146341463415,
        "PJ Cummins": 50,
        "UT Yadav": 206.66666666666669,
        "GB Hogg": 116.66666666666667,
        "SN Thakur": 116.66666666666667,
        "J Theron": 100,
        "NJ Maddinson": 80,
        "Bipul Sharma": 100,
        "SP Narine": 100,
        "Q de Kock": 161.03896103896105,
        "R Bhatia": 0,
        "Ankit Sharma": 140,
        "BE Hendricks": 100,
        "MEK Hussey": 110.95890410958904,
        "Azhar Mahmood": 100,
        "M Morkel": 133.33333333333331,
        "S Aravind": 0
    },
    "2016": {
        "LMP Simmons": 140,
        "RG Sharma": 134.23180592991915,
        "HH Pandya": 83.33333333333334,
        "JC Buttler": 141.1764705882353,
        "AT Rayudu": 122.06405693950177,
        "KA Pollard": 149.35897435897436,
        "S Gopal": 20,
        "Harbhajan Singh": 111.23595505617978,
        "R Vinay Kumar": 118.18181818181819,
        "MJ McClenaghan": 147.82608695652172,
        "AM Rahane": 128.4237726098191,
        "F du Plessis": 132.73809523809524,
        "KP Pietersen": 125,
        "MA Agarwal": 107.6923076923077,
        "Q de Kock": 140.7079646017699,
        "SS Iyer": 79.06976744186046,
        "KK Nair": 123.50993377483444,
        "SV Samson": 113.58490566037736,
        "P Negi": 105.08474576271188,
        "CR Brathwaite": 229.99999999999997,
        "CH Morris": 178.94736842105263,
        "NM Coulter-Nile": 81.81818181818183,
        "A Mishra": 30.76923076923077,
        "Z Khan": 100,
        "RV Uthappa": 142.03389830508476,
        "G Gambhir": 122.64150943396226,
        "MK Pandey": 140.4255319148936,
        "M Vijay": 127.61394101876675,
        "M Vohra": 125.37313432835822,
        "DA Miller": 123.18840579710144,
        "GJ Maxwell": 145.73643410852713,
        "WP Saha": 128.0373831775701,
        "MP Stoinis": 138.73873873873873,
        "AR Patel": 141.97530864197532,
        "AJ Finch": 136.03896103896105,
        "BB McCullum": 140.59040590405905,
        "SK Raina": 130.625,
        "KD Karthik": 126.007326007326,
        "RA Jadeja": 112.36559139784946,
        "Ishan Kishan": 107.31707317073172,
        "DJ Bravo": 122.72727272727273,
        "CH Gayle": 155.69620253164558,
        "V Kohli": 153.0674846625767,
        "AB de Villiers": 172.46376811594203,
        "SR Watson": 133.33333333333331,
        "KM Jadhav": 139.3939393939394,
        "SN Khan": 216.1290322580645,
        "DA Warner": 152.6770293609672,
        "S Dhawan": 119.40639269406392,
        "MC Henriques": 116.66666666666667,
        "NV Ojha": 102.15827338129498,
        "DJ Hooda": 121.7741935483871,
        "EJG Morgan": 120,
        "A Ashish Reddy": 160,
        "KV Sharma": 136.36363636363635,
        "AD Russell": 168,
        "YK Pathan": 148.046875,
        "C Munro": 112.90322580645163,
        "SA Yadav": 131.08108108108107,
        "PA Patel": 119.37500000000001,
        "SPD Smith": 153.80434782608697,
        "MS Dhoni": 137.72727272727272,
        "MR Marsh": 70,
        "R Bhatia": 188.88888888888889,
        "SE Marsh": 122.55639097744361,
        "MG Johnson": 46.15384615384615,
        "MM Sharma": 130.76923076923077,
        "P Sahu": 158.33333333333331,
        "Sandeep Sharma": 100,
        "B Kumar": 160.71428571428572,
        "KH Pandya": 191.26984126984127,
        "TG Southee": 165,
        "AD Nath": 74.07407407407408,
        "JP Faulkner": 133.33333333333331,
        "P Kumar": 100,
        "DS Kulkarni": 175,
        "NLTC Perera": 161.8556701030928,
        "IK Pathan": 92.85714285714286,
        "R Ashwin": 110.8108108108108,
        "D Wiese": 125,
        "JP Duminy": 126.28205128205127,
        "MJ Guptill": 112.96296296296295,
        "KJ Abbott": 162.5,
        "Shakib Al Hasan": 111.21495327102804,
        "KL Rahul": 150.36231884057972,
        "TM Head": 156.4102564102564,
        "STR Binny": 170.73170731707316,
        "KW Richardson": 100,
        "DW Steyn": 50,
        "Ankit Sharma": 150,
        "M Ashwin": 0,
        "NS Naik": 81.81818181818183,
        "R Dhawan": 233.33333333333334,
        "AP Tare": 85.71428571428571,
        "DR Smith": 148.23008849557522,
        "JA Morkel": 188.88888888888889,
        "R Sathish": 108.69565217391303,
        "PP Chawla": 107.6923076923077,
        "UT Yadav": 166.66666666666669,
        "Bipul Sharma": 216.66666666666666,
        "RR Pant": 131.1688311688312,
        "CA Lynn": 123.80952380952381,
        "SS Tiwary": 121.62162162162163,
        "SW Billings": 149.23076923076923,
        "Mohammed Shami": 75,
        "JO Holder": 131.57894736842107,
        "SP Narine": 57.14285714285714,
        "KS Williamson": 108.06451612903226,
        "Sachin Baby": 151.21951219512195,
        "Parvez Rasool": 111.11111111111111,
        "Gurkeerat Singh": 137.34939759036143,
        "KC Cariappa": 130,
        "PSP Handscomb": 66.66666666666666,
        "Swapnil Singh": 0,
        "J Yadav": 72.72727272727273,
        "UT Khawaja": 127.6190476190476,
        "Yuvraj Singh": 133.70165745856352,
        "GJ Bailey": 90.9090909090909,
        "HM Amla": 137.81512605042016,
        "JJ Bumrah": 72.72727272727273,
        "F Behardien": 107.6923076923077,
        "BB Sran": 125,
        "A Zampa": 0,
        "N Rana": 148.64864864864865,
        "A Nehra": 100,
        "UBT Chand": 25,
        "PV Tambe": 44.44444444444444,
        "S Kaushik": 0,
        "BCJ Cutting": 205.55555555555554,
        "S Nadeem": 40,
        "Imran Tahir": 71.42857142857143,
        "M Morkel": 100,
        "ER Dwivedi": 193.33333333333334,
        "SB Jakati": 100,
        "Iqbal Abdulla": 148.14814814814815,
        "CJ Jordan": 100
    },
    "2017": {
        "DA Warner": 145.65217391304347,
        "S Dhawan": 129.58115183246073,
        "MC Henriques": 138.72549019607843,
        "Yuvraj Singh": 140.95744680851064,
        "DJ Hooda": 149.0566037735849,
        "BCJ Cutting": 192.59259259259258,
        "CH Gayle": 126.16279069767442,
        "Mandeep Singh": 109.65909090909092,
        "TM Head": 140.36697247706422,
        "KM Jadhav": 145.5958549222798,
        "SR Watson": 93.75,
        "Sachin Baby": 106.25,
        "STR Binny": 103.89610389610388,
        "S Aravind": 94.5945945945946,
        "YS Chahal": 56.52173913043478,
        "TS Mills": 81.81818181818183,
        "A Choudhary": 125,
        "PA Patel": 138.63636363636365,
        "JC Buttler": 155.91397849462365,
        "RG Sharma": 125.99277978339349,
        "N Rana": 126.71480144404332,
        "AT Rayudu": 117.5,
        "KH Pandya": 139.78494623655914,
        "KA Pollard": 143.1972789115646,
        "HH Pandya": 156.7251461988304,
        "TG Southee": 233.33333333333334,
        "AM Rahane": 118.29268292682926,
        "MA Agarwal": 100,
        "SPD Smith": 123.30827067669172,
        "BA Stokes": 143.36283185840708,
        "MS Dhoni": 117.62452107279692,
        "JJ Roy": 150,
        "BB McCullum": 147.136563876652,
        "SK Raina": 146.92556634304208,
        "AJ Finch": 167.89473684210526,
        "KD Karthik": 142.32209737827714,
        "G Gambhir": 131.11111111111111,
        "CA Lynn": 181.60919540229884,
        "MK Tiwary": 139.6694214876033,
        "DT Christian": 164.70588235294116,
        "HM Amla": 148.29931972789117,
        "M Vohra": 147.05882352941177,
        "WP Saha": 126.94300518134716,
        "AR Patel": 138.5964912280702,
        "GJ Maxwell": 180.10752688172042,
        "DA Miller": 108.53658536585367,
        "Vishnu Vinod": 73.07692307692307,
        "Iqbal Abdulla": 83.33333333333334,
        "P Negi": 137.5,
        "AP Tare": 87.5,
        "SW Billings": 134.9056603773585,
        "KK Nair": 130.26315789473685,
        "SV Samson": 143.63636363636363,
        "RR Pant": 165.92920353982302,
        "CH Morris": 162.88659793814432,
        "CR Brathwaite": 92.85714285714286,
        "PJ Cummins": 149.0566037735849,
        "A Mishra": 101.85185185185186,
        "S Nadeem": 50,
        "Z Khan": 30.76923076923077,
        "DR Smith": 154.43037974683546,
        "DS Kulkarni": 50,
        "P Kumar": 88.88888888888889,
        "Basil Thampi": 106.66666666666667,
        "RV Uthappa": 173.94957983193277,
        "MK Pandey": 130.15873015873015,
        "YK Pathan": 130.25210084033614,
        "SA Yadav": 121.34831460674158,
        "CR Woakes": 100,
        "SP Narine": 175.55555555555554,
        "Harbhajan Singh": 111.76470588235294,
        "AB de Villiers": 136.25730994152048,
        "CJ Anderson": 118.75,
        "F du Plessis": 114.28571428571428,
        "RA Tripathi": 149.45454545454547,
        "R Bhatia": 100,
        "DL Chahar": 280,
        "A Zampa": 83.33333333333334,
        "AB Dinda": 114.28571428571428,
        "Imran Tahir": 0,
        "NV Ojha": 120,
        "V Shankar": 136.36363636363635,
        "Rashid Khan": 133.33333333333331,
        "B Kumar": 100,
        "MP Stoinis": 75,
        "MM Sharma": 101.96078431372548,
        "VR Aaron": 45.45454545454545,
        "V Kohli": 122.17898832684826,
        "MJ McClenaghan": 113.33333333333333,
        "Ankit Sharma": 173.33333333333334,
        "SN Thakur": 0,
        "RD Chahar": 150,
        "LH Ferguson": 100,
        "C de Grandhomme": 144.44444444444443,
        "Bipul Sharma": 143.47826086956522,
        "SS Iyer": 141.36546184738955,
        "EJG Morgan": 110.00000000000001,
        "KC Cariappa": 28.57142857142857,
        "Sandeep Sharma": 128.57142857142858,
        "Ishan Kishan": 136.96682464454977,
        "JD Unadkat": 100,
        "AF Milne": 58.333333333333336,
        "S Badree": 71.42857142857143,
        "AD Mathews": 117.85714285714286,
        "Mohammed Shami": 154.16666666666669,
        "Mohammad Nabi": 100,
        "I Sharma": 69.23076923076923,
        "RA Jadeja": 143.859649122807,
        "AJ Tye": 193.10344827586206,
        "KS Williamson": 155.88235294117646,
        "SE Marsh": 139.08629441624365,
        "Shakib Al Hasan": 100,
        "JP Faulkner": 96.66666666666667,
        "MG Johnson": 123.52941176470588,
        "K Rabada": 88.23529411764706,
        "AD Nath": 0,
        "NM Coulter-Nile": 115.38461538461537,
        "Kuldeep Yadav": 95.23809523809523,
        "UT Yadav": 83.33333333333334,
        "Washington Sundar": 100,
        "KV Sharma": 119.04761904761905,
        "DM Bravo": 150,
        "AR Bawne": 100,
        "SP Jackson": 122.58064516129032,
        "MJ Guptill": 152.8735632183908,
        "Anureet Singh": 125,
        "IK Pathan": 66.66666666666666,
        "Ankit Soni": 100,
        "JJ Bumrah": 145.45454545454547,
        "SL Malinga": 350,
        "PJ Sangwan": 50,
        "S Kaul": 0,
        "LMP Simmons": 128.0701754385965,
        "MN Samuels": 103.44827586206897,
        "Swapnil Singh": 63.1578947368421,
        "R Tewatia": 200,
        "MM Patel": 0,
        "SS Tiwary": 123.91304347826086,
        "TA Boult": 62.5,
        "CJ Jordan": 0,
        "IR Jaggi": 92.3076923076923,
        "PP Chawla": 33.33333333333333,
        "AS Rajpoot": 57.14285714285714
    }
}